<?xml version="1.0" encoding="utf-8"?>
<!-- Generator: Adobe Illustrator 24.0.0, SVG Export Plug-In . SVG Version: 6.00 Build 0)  -->
<svg version="1.1" id="Layer_1" xmlns="http://www.w3.org/2000/svg" xmlns:xlink="http://www.w3.org/1999/xlink" x="0px" y="0px"
	 viewBox="0 0 224 37" style="enable-background:new 0 0 224 37;" xml:space="preserve">
<style type="text/css">
	.st0{fill-rule:evenodd;clip-rule:evenodd;fill:#000200;}
	.st1{opacity:0.5;fill-rule:evenodd;clip-rule:evenodd;fill:#000200;enable-background:new    ;}
	.st2{fill-rule:evenodd;clip-rule:evenodd;fill:#76B0F8;}
	.st3{filter:url(#Adobe_OpacityMaskFilter);}
	.st4{fill-rule:evenodd;clip-rule:evenodd;fill:#FFFFFF;}
	.st5{mask:url(#b_1_);}
	.st6{fill-rule:evenodd;clip-rule:evenodd;fill:#6BE374;}
	.st7{filter:url(#Adobe_OpacityMaskFilter_1_);}
	.st8{mask:url(#b_2_);}
	.st9{filter:url(#c);}
	.st10{fill-rule:evenodd;clip-rule:evenodd;}
</style>
<filter  filterUnits="objectBoundingBox" height="188.1%" id="c" width="208.3%" x="-54.1%" y="-37.3%">
	<feOffset  dy="2" in="SourceAlpha" result="shadowOffsetOuter1"></feOffset>
	<feGaussianBlur  in="shadowOffsetOuter1" result="shadowBlurOuter1" stdDeviation="4"></feGaussianBlur>
	<feColorMatrix  in="shadowBlurOuter1" values="0 0 0 0 0 0 0 0 0 0 0 0 0 0 0 0 0 0 0.16 0"></feColorMatrix>
</filter>
<g>
	<g>
		<path class="st0" d="M57.7,5.9c-0.3-0.3-0.7-0.6-1.2-0.7c-0.4-0.2-0.9-0.3-1.3-0.3c-0.2,0-0.4,0-0.6,0.1c-0.2,0-0.4,0.1-0.5,0.2
			c-0.2,0.1-0.3,0.2-0.4,0.4c-0.1,0.2-0.2,0.4-0.2,0.6c0,0.4,0.2,0.7,0.5,0.9s0.8,0.4,1.3,0.5c0.5,0.2,1.1,0.4,1.6,0.6
			c0.6,0.3,1.1,0.6,1.6,1c0.5,0.4,0.9,0.9,1.2,1.5c0.3,0.6,0.5,1.3,0.5,2.1c0,1-0.2,1.8-0.5,2.5c-0.3,0.7-0.8,1.2-1.3,1.7
			c-0.6,0.5-1.2,0.8-1.9,1c-0.7,0.2-1.5,0.3-2.3,0.3c-1.1,0-2.2-0.2-3.2-0.6c-1-0.4-1.9-1-2.6-1.8c0.4-0.5,0.8-1,1.2-1.5
			s0.8-1,1.2-1.5c0.2,0.2,0.4,0.3,0.7,0.5s0.6,0.3,0.9,0.4s0.6,0.2,1,0.3c0.3,0.1,0.6,0.1,0.9,0.1c0.4,0,0.8-0.1,1.1-0.4
			s0.5-0.7,0.5-1.2c0-0.2-0.1-0.4-0.2-0.6c-0.1-0.2-0.3-0.3-0.4-0.4c-0.2-0.1-0.4-0.2-0.6-0.3c-0.2-0.1-0.4-0.2-0.6-0.2
			c-0.7-0.2-1.4-0.4-2-0.7c-0.6-0.2-1.1-0.6-1.5-1c-0.4-0.4-0.8-0.9-1-1.4c-0.2-0.6-0.3-1.3-0.3-2.1c0-0.9,0.2-1.7,0.5-2.3
			c0.3-0.6,0.8-1.2,1.4-1.6c0.6-0.4,1.2-0.7,1.9-0.9c0.7-0.2,1.4-0.3,2.2-0.3c0.9,0,1.8,0.2,2.7,0.5s1.6,0.8,2.2,1.4
			c-0.4,0.5-0.8,1-1.2,1.5S58.1,5.3,57.7,5.9z M62.8,18V1.2h4.4v6.1h4.3V1.2h4.4V18h-4.4v-6.8h-4.3V18H62.8z M96.3,9.6
			c0,1.2-0.2,2.4-0.7,3.5c-0.4,1-1.1,2-1.9,2.8c-0.8,0.8-1.8,1.4-2.9,1.8c-1.1,0.4-2.3,0.6-3.6,0.6c-1.3,0-2.5-0.2-3.6-0.6
			c-1.1-0.4-2-1-2.9-1.8c-0.8-0.8-1.5-1.7-1.9-2.8c-0.5-1.1-0.7-2.2-0.7-3.5s0.2-2.4,0.7-3.5c0.4-1,1.1-2,1.9-2.8
			c0.8-0.8,1.8-1.4,2.9-1.8c1.1-0.4,2.3-0.6,3.6-0.6c1.3,0,2.5,0.2,3.6,0.6c1.1,0.4,2,1,2.9,1.8c0.8,0.8,1.5,1.7,1.9,2.8
			C96.1,7.2,96.3,8.4,96.3,9.6z M91.9,9.6c0-0.7-0.1-1.3-0.4-1.9c-0.2-0.6-0.6-1.1-1-1.5c-0.4-0.4-0.9-0.8-1.5-1
			c-0.6-0.2-1.2-0.4-1.8-0.4c-0.7,0-1.4,0.1-1.9,0.4c-0.6,0.2-1,0.6-1.4,1S83.2,7.1,83,7.7c-0.2,0.6-0.3,1.3-0.3,1.9
			c0,0.7,0.1,1.3,0.4,1.9s0.6,1.1,1,1.5c0.9,0.9,2.1,1.4,3.3,1.4c0.7,0,1.4-0.1,1.9-0.4c0.5-0.2,1-0.6,1.4-1
			c0.4-0.4,0.7-0.9,0.9-1.5C91.8,10.9,91.9,10.2,91.9,9.6z M103,1.2v10.4c0,0.3,0,0.6,0.1,0.9c0.1,0.3,0.2,0.6,0.4,0.9
			s0.4,0.5,0.7,0.7c0.3,0.2,0.6,0.3,1.1,0.3s0.8-0.1,1.1-0.3s0.5-0.4,0.7-0.7s0.3-0.6,0.4-0.9c0.1-0.3,0.1-0.6,0.1-0.9V1.2h4.4v10.4
			c0,0.7-0.1,1.4-0.3,2.2c-0.2,0.8-0.5,1.5-1,2.2c-0.5,0.7-1.2,1.2-2,1.6s-1.9,0.6-3.3,0.6c-1.3,0-2.4-0.2-3.3-0.6
			c-0.9-0.4-1.5-1-2-1.6c-0.5-0.6-0.8-1.4-1-2.2c-0.2-0.7-0.3-1.5-0.3-2.2V1.2C98.6,1.2,103,1.2,103,1.2z M115.1,18V1.2h4.4v12.9
			h5.2V18C124.6,18,115.1,18,115.1,18z M126.9,1.2h5.6c1.1,0,2.1,0.2,3.2,0.5c1,0.3,2,0.9,2.8,1.6c0.8,0.7,1.5,1.6,2.1,2.6
			s0.8,2.3,0.8,3.7c0,1.4-0.3,2.6-0.8,3.7s-1.2,1.9-2.1,2.6c-0.8,0.7-1.8,1.2-2.8,1.6c-1,0.3-2.1,0.5-3.2,0.5h-5.6
			C126.9,18,126.9,1.2,126.9,1.2z M131.3,14.1h1.2c0.5,0,1.1-0.1,1.6-0.3s1-0.5,1.4-0.9c0.4-0.4,0.8-0.9,1-1.4
			c0.3-0.6,0.4-1.2,0.4-2s-0.1-1.4-0.4-2c-0.2-0.5-0.6-1-1-1.4c-0.4-0.4-0.9-0.6-1.4-0.8c-0.5-0.2-1-0.3-1.6-0.3h-1.2V14.1z
			 M153.5,18h-4.4V1.2h4.4V18z M162.4,1.2h6.4c0.9,0,1.8,0.1,2.6,0.2s1.5,0.3,2.2,0.7s1.1,0.8,1.5,1.5s0.5,1.5,0.5,2.5
			c0,0.7-0.2,1.3-0.5,1.9c-0.3,0.6-0.8,1-1.2,1.2v0c0.8,0.4,1.5,0.8,2,1.4s0.7,1.4,0.7,2.3c0,1.1-0.2,1.9-0.6,2.6
			c-0.4,0.7-1,1.2-1.6,1.5c-0.7,0.4-1.5,0.6-2.4,0.8c-0.9,0.1-1.9,0.2-2.8,0.2h-6.7C162.4,18,162.4,1.2,162.4,1.2z M166.7,14.1h2.3
			c0.4,0,0.8,0,1.2-0.1c0.4,0,0.7-0.1,1-0.3s0.5-0.3,0.7-0.5s0.3-0.5,0.3-0.8c0-0.5-0.2-1-0.7-1.2s-1.1-0.4-1.9-0.4h-2.8L166.7,14.1
			L166.7,14.1z M166.7,7.8h2.9c0.4,0,0.8-0.1,1.1-0.3c0.3-0.2,0.5-0.5,0.5-1c0-0.6-0.2-1-0.7-1.2s-1-0.3-1.7-0.3h-2.1L166.7,7.8
			L166.7,7.8z M183.2,1.2v10.4c0,0.3,0,0.6,0.1,0.9c0.1,0.3,0.2,0.6,0.4,0.9s0.4,0.5,0.7,0.7c0.3,0.2,0.6,0.3,1.1,0.3
			s0.8-0.1,1.1-0.3s0.5-0.4,0.7-0.7s0.3-0.6,0.4-0.9c0.1-0.3,0.1-0.6,0.1-0.9V1.2h4.4v10.4c0,0.7-0.1,1.4-0.3,2.2
			c-0.2,0.8-0.5,1.5-1,2.2c-0.5,0.7-1.2,1.2-2,1.6s-1.9,0.6-3.3,0.6c-1.3,0-2.4-0.2-3.3-0.6c-0.9-0.4-1.5-1-2-1.6
			c-0.5-0.6-0.8-1.4-1-2.2c-0.2-0.7-0.3-1.5-0.3-2.2V1.2H183.2L183.2,1.2z M199.7,18v-6.7l-6.6-10.1h5l3.7,6.7h0l3.7-6.7h5
			l-6.6,10.1V18H199.7z M214.2,14.1h4.4V18h-4.4V14.1z M214.2,12.1v-0.8c0-0.6,0.1-1.1,0.2-1.5c0.1-0.4,0.3-0.8,0.5-1.1
			c0.2-0.3,0.5-0.7,0.8-1c0.3-0.3,0.7-0.6,1.2-1c0.2-0.1,0.4-0.3,0.5-0.5c0.1-0.2,0.2-0.4,0.2-0.6c0-0.2-0.1-0.4-0.3-0.6
			c-0.2-0.1-0.5-0.2-0.8-0.2c-0.4,0-0.7,0.1-1,0.3c-0.3,0.2-0.6,0.5-0.8,0.9l-3.8-0.8c0.3-1.3,0.9-2.3,1.9-3.1s2.2-1.1,3.7-1.1
			c0.8,0,1.5,0.1,2.2,0.3s1.3,0.5,1.8,0.9s0.9,0.9,1.2,1.5s0.4,1.3,0.4,2c0,0.5-0.1,1-0.2,1.4c-0.1,0.4-0.3,0.8-0.6,1.1
			c-0.2,0.3-0.5,0.6-0.8,0.9c-0.3,0.3-0.6,0.5-1,0.8c-0.3,0.2-0.6,0.5-0.7,0.6c-0.1,0.2-0.2,0.4-0.2,0.8v0.8
			C218.6,12.1,214.2,12.1,214.2,12.1z"/>
		<path class="st1" d="M55,33v1h-5.8v-9.1h5.6v1h-4.5v2.8h4.2v1h-4.2V33C50.4,33,55,33,55,33z M57.2,27.5l1.7,2.3h0l1.7-2.3h1.3
			l-2.3,3.1l2.5,3.4h-1.3l-1.9-2.6h0L57.1,34h-1.3l2.5-3.4l-2.3-3.1H57.2z M64.5,32.1c0.2,0.3,0.5,0.6,0.8,0.8
			c0.3,0.2,0.7,0.3,1.1,0.3c0.3,0,0.6-0.1,0.9-0.2c0.3-0.1,0.5-0.3,0.7-0.5c0.2-0.2,0.4-0.5,0.5-0.8c0.1-0.3,0.2-0.6,0.2-1
			s-0.1-0.7-0.2-1c-0.1-0.3-0.3-0.5-0.5-0.8c-0.2-0.2-0.4-0.4-0.7-0.5c-0.3-0.1-0.6-0.2-0.9-0.2c-0.8,0-1.5,0.4-1.9,1
			C64.5,29.4,64.5,32.1,64.5,32.1z M64.5,36.6h-1.1v-7.4c0-0.3-0.1-0.4-0.2-0.6c-0.1-0.1-0.2-0.2-0.4-0.2h-0.1c0,0,0,0-0.1,0l-0.1-1
			c0,0,0.1,0,0.1,0c0,0,0.1,0,0.1,0c0.2,0,0.4,0,0.5,0c0.1,0,0.3,0.1,0.4,0.1S64,27.9,64,28c0.1,0.1,0.2,0.2,0.2,0.4h0
			c0.3-0.3,0.6-0.6,1-0.7c0.4-0.2,0.8-0.3,1.3-0.3c0.9,0,1.7,0.4,2.3,1c0.6,0.7,1,1.5,1,2.4c0,0.4-0.1,0.8-0.2,1.2
			c-0.1,0.4-0.3,0.7-0.6,1c-0.2,0.3-0.5,0.5-0.9,0.7c-0.3,0.2-0.7,0.3-1.1,0.4c-0.1,0-0.2,0-0.3,0c-0.1,0-0.2,0-0.3,0
			c-0.4,0-0.7-0.1-1-0.2c-0.3-0.1-0.6-0.3-0.8-0.6h0C64.5,33.4,64.5,36.6,64.5,36.6z M77.1,33.2c-0.2,0.2-0.4,0.3-0.7,0.5
			c-0.3,0.1-0.5,0.2-0.8,0.3c-0.3,0.1-0.7,0.1-1,0.1c-0.5,0-1-0.1-1.5-0.2c-0.4-0.2-0.8-0.4-1.2-0.7c-0.3-0.3-0.6-0.7-0.8-1.1
			c-0.2-0.4-0.3-0.9-0.3-1.4c0-0.5,0.1-1,0.3-1.4c0.2-0.4,0.4-0.8,0.7-1.1c0.3-0.3,0.7-0.5,1.1-0.7c0.4-0.2,0.9-0.2,1.3-0.2
			c0.5,0,0.9,0.1,1.3,0.2c0.4,0.2,0.7,0.4,0.9,0.6c0.2,0.3,0.4,0.6,0.5,0.9c0.1,0.3,0.2,0.7,0.2,1.1c0,0.2,0,0.3,0,0.5
			c0,0.1,0,0.2,0,0.3H72c0,0.3,0.1,0.6,0.2,0.9c0.1,0.3,0.3,0.5,0.5,0.7c0.2,0.2,0.5,0.3,0.8,0.4c0.3,0.1,0.6,0.2,1,0.2
			c0.3,0,0.6,0,0.8-0.1c0.2-0.1,0.4-0.1,0.6-0.2c0.2-0.1,0.4-0.2,0.5-0.3L77.1,33.2L77.1,33.2z M76.1,30.1c0-0.2,0-0.5-0.1-0.7
			c-0.1-0.4-0.5-0.8-0.9-0.9c-0.3-0.1-0.5-0.1-0.8-0.1c-0.5,0-1,0.2-1.4,0.5s-0.7,0.8-0.8,1.3C72.1,30.1,76.1,30.1,76.1,30.1z
			 M78.7,34v-6.5h1.1l0,0.9h0c0.2-0.3,0.5-0.5,0.8-0.7c0.3-0.2,0.6-0.3,1-0.3c0.1,0,0.3,0,0.4,0s0.2,0,0.4,0.1
			c0,0.2-0.1,0.3-0.1,0.5c0,0.2-0.1,0.3-0.1,0.5c-0.1,0-0.2,0-0.2,0c-0.1,0-0.2,0-0.3,0c-0.4,0-0.8,0.1-1.1,0.3
			c-0.2,0.1-0.3,0.2-0.4,0.3c-0.1,0.1-0.2,0.2-0.2,0.4V34C79.8,34,78.7,34,78.7,34z M84.8,25.2v2.3h1.1v1h-1.1v3.9
			c0,0.1,0,0.3,0.1,0.4c0,0.1,0.1,0.2,0.2,0.2c0.1,0,0.2,0.1,0.2,0.1c0.1,0,0.2,0,0.3,0c0.1,0,0.2,0,0.3,0c0.1,0,0.2,0,0.2,0l0.2,1
			c-0.2,0-0.4,0.1-0.7,0.1c-0.2,0-0.4,0-0.6,0c-0.2,0-0.4-0.1-0.6-0.2c-0.2-0.1-0.4-0.3-0.4-0.5c-0.1-0.2-0.2-0.5-0.2-1v-3.9h-0.9
			v-1h0.9v-2.3C83.6,25.2,84.8,25.2,84.8,25.2z M90.7,28.3c0.3-0.3,0.6-0.5,1.1-0.7c0.4-0.2,1-0.3,1.5-0.3c0.4,0,0.7,0,1,0.1
			s0.6,0.2,0.8,0.4c0.2,0.2,0.4,0.4,0.6,0.7c0.1,0.3,0.2,0.6,0.2,1V32c0,0.2,0,0.4,0.1,0.5c0,0.1,0.1,0.3,0.2,0.4
			c0.1,0.1,0.2,0.1,0.3,0.1c0,0,0.1,0,0.1,0h0.1l0.1,1c0,0-0.1,0-0.1,0c0,0-0.1,0-0.1,0c-0.3,0-0.6,0-0.9-0.2
			c-0.2-0.1-0.4-0.3-0.5-0.5h0c-0.3,0.3-0.7,0.5-1,0.6c-0.4,0.2-0.8,0.3-1.2,0.2c-0.3,0-0.6,0-0.9-0.1c-0.3-0.1-0.6-0.2-0.8-0.3
			c-0.2-0.1-0.4-0.3-0.6-0.6c-0.2-0.2-0.2-0.5-0.2-0.9c0-0.5,0.1-0.8,0.4-1.1s0.6-0.5,1-0.7c0.4-0.2,0.9-0.3,1.4-0.4
			c0.6-0.1,1.1-0.1,1.7-0.1v-0.3c0-0.5-0.2-0.8-0.5-1c-0.3-0.2-0.7-0.4-1.1-0.3c-0.4,0-0.8,0.1-1.1,0.2c-0.3,0.1-0.6,0.3-0.7,0.5
			L90.7,28.3z M94.7,30.9c-0.4,0-0.9,0-1.3,0.1c-0.4,0-0.7,0.1-1.1,0.2c-0.3,0.1-0.5,0.2-0.7,0.4c-0.2,0.2-0.3,0.4-0.3,0.7
			c0,0.2,0,0.3,0.1,0.4c0.1,0.1,0.2,0.2,0.3,0.3c0.1,0.1,0.3,0.1,0.5,0.1c0.2,0,0.3,0,0.5,0c0.4,0,0.7-0.1,1-0.2
			c0.3-0.1,0.6-0.3,0.9-0.5C94.7,32.5,94.7,30.9,94.7,30.9z M102.8,29.4c-0.2-0.3-0.5-0.6-0.8-0.8c-0.3-0.2-0.7-0.3-1.1-0.3
			c-0.3,0-0.6,0.1-0.9,0.2c-0.3,0.1-0.5,0.3-0.7,0.5c-0.2,0.2-0.4,0.5-0.5,0.8c-0.1,0.3-0.2,0.6-0.2,1s0.1,0.7,0.2,1
			c0.1,0.3,0.3,0.5,0.5,0.8c0.2,0.2,0.4,0.4,0.7,0.5c0.3,0.1,0.6,0.2,0.9,0.2c0.8,0,1.5-0.4,1.9-1C102.8,32.1,102.8,29.4,102.8,29.4
			z M102.8,28.1v-3.6h1.1v7.8c0,0.3,0.1,0.4,0.2,0.6c0.1,0.1,0.2,0.2,0.4,0.2c0,0,0.1,0,0.1,0h0l0.1,1c0,0-0.1,0-0.1,0
			c0,0-0.1,0-0.1,0c-0.2,0-0.4,0-0.5,0c-0.1,0-0.3-0.1-0.4-0.2c-0.1-0.1-0.2-0.2-0.3-0.3c-0.1-0.1-0.2-0.2-0.2-0.4h0
			c-0.3,0.3-0.6,0.6-1,0.7c-0.4,0.2-0.8,0.3-1.2,0.3c-0.1,0-0.3,0-0.4,0l-0.4-0.1c-0.4-0.1-0.7-0.2-1-0.4c-0.3-0.2-0.6-0.4-0.8-0.7
			c-0.2-0.3-0.4-0.6-0.6-1c-0.1-0.4-0.2-0.8-0.2-1.2c0-0.4,0.1-0.8,0.2-1.2c0.1-0.4,0.3-0.7,0.6-1c0.2-0.3,0.5-0.5,0.8-0.7
			c0.3-0.2,0.7-0.3,1-0.4l0.4-0.1c0.1,0,0.3,0,0.4,0c0.4,0,0.7,0.1,1.1,0.2C102.2,27.7,102.5,27.9,102.8,28.1
			C102.7,28.1,102.8,28.1,102.8,28.1z M108,34l-2.9-6.5h1.2l2.3,5.3h0l2.3-5.3h1.2l-2.9,6.5H108z M113.3,24.8h1.1v1.3h-1.1V24.8z
			 M113.3,27.5h1.1V34h-1.1V27.5z M121,29c-0.2-0.2-0.4-0.4-0.6-0.5c-0.3-0.1-0.6-0.2-1-0.2c-0.3,0-0.6,0.1-0.9,0.2
			c-0.3,0.1-0.5,0.3-0.7,0.5c-0.2,0.2-0.4,0.5-0.5,0.8c-0.1,0.3-0.2,0.7-0.2,1c0,0.4,0.1,0.7,0.2,1c0.1,0.3,0.3,0.5,0.5,0.8
			s0.5,0.4,0.8,0.5c0.3,0.1,0.6,0.2,1,0.2c0.3,0,0.5,0,0.7-0.1c0.2-0.1,0.4-0.2,0.5-0.3c0.2-0.1,0.3-0.2,0.4-0.4l0.8,0.6
			c-0.4,0.4-0.8,0.8-1.4,1c-0.3,0.1-0.6,0.2-1,0.2c-0.5,0-1-0.1-1.4-0.2c-0.4-0.2-0.8-0.4-1.1-0.7c-0.3-0.3-0.6-0.7-0.7-1.1
			c-0.2-0.4-0.3-0.9-0.3-1.4c0-0.5,0.1-1,0.3-1.4c0.3-0.8,1-1.4,1.8-1.7c0.4-0.2,0.9-0.2,1.3-0.2c0.6,0,1.1,0.1,1.5,0.3
			c0.4,0.2,0.7,0.5,1,0.8C121.8,28.5,121,29,121,29z M128.8,33.2c-0.2,0.2-0.4,0.3-0.7,0.5c-0.3,0.1-0.5,0.2-0.8,0.3
			c-0.3,0.1-0.7,0.1-1,0.1c-0.5,0-1-0.1-1.5-0.2c-0.4-0.2-0.8-0.4-1.2-0.7c-0.3-0.3-0.6-0.7-0.8-1.1c-0.2-0.4-0.3-0.9-0.3-1.4
			c0-0.5,0.1-1,0.3-1.4c0.2-0.4,0.4-0.8,0.7-1.1c0.3-0.3,0.7-0.5,1.1-0.7s0.9-0.2,1.3-0.2c0.5,0,0.9,0.1,1.3,0.2
			c0.4,0.2,0.7,0.4,0.9,0.6c0.2,0.3,0.4,0.6,0.5,0.9c0.1,0.3,0.2,0.7,0.2,1.1c0,0.2,0,0.3,0,0.5c0,0.1,0,0.2,0,0.3h-5.2
			c0,0.3,0.1,0.6,0.2,0.9c0.1,0.3,0.3,0.5,0.5,0.7c0.2,0.2,0.5,0.3,0.8,0.4c0.3,0.1,0.6,0.2,1,0.2c0.3,0,0.6,0,0.8-0.1
			c0.2-0.1,0.4-0.1,0.6-0.2c0.2-0.1,0.4-0.2,0.5-0.3L128.8,33.2L128.8,33.2z M127.9,30.1c0-0.2,0-0.5-0.1-0.7
			c-0.1-0.4-0.5-0.8-0.9-0.9c-0.3-0.1-0.5-0.1-0.8-0.1c-0.5,0-1,0.2-1.4,0.5s-0.7,0.8-0.8,1.3C123.8,30.1,127.9,30.1,127.9,30.1z
			 M133.9,24.5h1.1v3.6h0c0.5-0.5,1.3-0.8,2-0.8c0.4,0,0.9,0.1,1.3,0.3c0.8,0.3,1.4,1,1.7,1.8c0.2,0.4,0.3,0.9,0.3,1.4
			c0,0.5-0.1,0.9-0.3,1.4c-0.2,0.4-0.4,0.8-0.7,1.1c-0.3,0.3-0.7,0.5-1,0.7c-0.4,0.2-0.8,0.3-1.3,0.3c-0.4,0-0.8-0.1-1.1-0.2
			c-0.3-0.1-0.6-0.4-0.9-0.6h0l0,0.7h-1.1C133.9,34,133.9,24.5,133.9,24.5z M135,32.1c0.2,0.3,0.5,0.6,0.8,0.7
			c0.3,0.2,0.7,0.3,1.1,0.3c0.3,0,0.6-0.1,0.9-0.2c0.3-0.1,0.5-0.3,0.7-0.5c0.2-0.2,0.4-0.5,0.5-0.8c0.1-0.3,0.2-0.6,0.2-1
			s-0.1-0.7-0.2-1c-0.1-0.3-0.3-0.5-0.5-0.8c-0.2-0.2-0.4-0.4-0.7-0.5c-0.3-0.1-0.6-0.2-0.9-0.2c-0.4,0-0.8,0.1-1.1,0.3
			c-0.3,0.2-0.6,0.4-0.8,0.8L135,32.1L135,32.1z M147.6,33.2c-0.2,0.2-0.4,0.3-0.7,0.5c-0.3,0.1-0.5,0.2-0.8,0.3
			c-0.3,0.1-0.7,0.1-1,0.1c-0.5,0-1-0.1-1.5-0.2c-0.4-0.2-0.8-0.4-1.2-0.7c-0.3-0.3-0.6-0.7-0.8-1.1c-0.2-0.4-0.3-0.9-0.3-1.4
			c0-0.5,0.1-1,0.3-1.4c0.2-0.4,0.4-0.8,0.7-1.1c0.3-0.3,0.7-0.5,1.1-0.7c0.4-0.2,0.9-0.2,1.3-0.2c0.5,0,0.9,0.1,1.3,0.2
			c0.4,0.2,0.7,0.4,0.9,0.6c0.2,0.3,0.4,0.6,0.5,0.9c0.1,0.3,0.2,0.7,0.2,1.1c0,0.2,0,0.3,0,0.5c0,0.1,0,0.2,0,0.3h-5.2
			c0,0.3,0.1,0.6,0.2,0.9c0.1,0.3,0.3,0.5,0.5,0.7c0.2,0.2,0.5,0.3,0.8,0.4c0.3,0.1,0.6,0.2,1,0.2c0.3,0,0.6,0,0.8-0.1
			c0.2-0.1,0.4-0.1,0.6-0.2c0.2-0.1,0.4-0.2,0.5-0.3C146.9,32.5,147.6,33.2,147.6,33.2z M146.6,30.1c0-0.2,0-0.5-0.1-0.7
			c-0.1-0.4-0.5-0.8-0.9-0.9c-0.3-0.1-0.5-0.1-0.8-0.1c-0.5,0-1,0.2-1.4,0.5s-0.7,0.8-0.8,1.3C142.5,30.1,146.6,30.1,146.6,30.1z
			 M151.7,25.5c-0.1,0-0.1,0-0.2,0c-0.2,0-0.3,0-0.5,0c-0.1,0-0.2,0-0.2,0.1c-0.1,0.1-0.1,0.1-0.2,0.2c-0.1,0.1-0.1,0.3-0.1,0.4v1.3
			h1.1v1h-1.1V34h-1.1v-5.5h-0.7v-1h0.7v-1.3c0-0.4,0.1-0.7,0.2-1c0.1-0.2,0.3-0.4,0.4-0.5c0.2-0.1,0.4-0.2,0.6-0.2
			c0.2,0,0.4,0,0.6,0c0.2,0,0.4,0,0.7,0.1L151.7,25.5L151.7,25.5z M159.2,30.8c0,0.5-0.1,0.9-0.3,1.4c-0.2,0.4-0.4,0.8-0.7,1.1
			c-0.3,0.3-0.7,0.6-1.1,0.7c-0.4,0.2-0.9,0.3-1.4,0.3c-0.5,0-1-0.1-1.4-0.3c-0.4-0.2-0.8-0.4-1.1-0.7c-0.3-0.3-0.6-0.7-0.7-1.1
			c-0.2-0.4-0.3-0.9-0.3-1.4c0-0.5,0.1-0.9,0.3-1.4c0.2-0.4,0.4-0.8,0.7-1.1c0.3-0.3,0.7-0.6,1.1-0.7c0.4-0.2,0.9-0.3,1.4-0.3
			c0.5,0,1,0.1,1.4,0.3c0.4,0.2,0.8,0.4,1.1,0.7c0.3,0.3,0.5,0.7,0.7,1.1C159.1,29.8,159.2,30.3,159.2,30.8z M158,30.8
			c0-0.3-0.1-0.7-0.2-1c-0.1-0.3-0.3-0.5-0.5-0.8c-0.2-0.2-0.5-0.4-0.7-0.5c-0.3-0.1-0.6-0.2-0.9-0.2c-0.3,0-0.6,0.1-0.9,0.2
			c-0.6,0.2-1,0.7-1.2,1.3c-0.1,0.3-0.2,0.6-0.2,1c0,0.3,0.1,0.7,0.2,1c0.1,0.3,0.3,0.5,0.5,0.8c0.2,0.2,0.4,0.4,0.7,0.5
			c0.3,0.1,0.6,0.2,0.9,0.2s0.6-0.1,0.9-0.2c0.3-0.1,0.5-0.3,0.7-0.5c0.2-0.2,0.4-0.5,0.5-0.8C158,31.4,158,31.1,158,30.8z
			 M160.7,34v-6.5h1.1l0,0.9h0c0.2-0.3,0.5-0.5,0.8-0.7c0.3-0.2,0.6-0.3,1-0.3c0.1,0,0.3,0,0.4,0s0.2,0,0.4,0.1
			c0,0.2-0.1,0.3-0.1,0.5c0,0.2-0.1,0.3-0.1,0.5c-0.1,0-0.2,0-0.2,0c-0.1,0-0.2,0-0.3,0c-0.4,0-0.8,0.1-1.1,0.3
			c-0.2,0.1-0.3,0.2-0.4,0.3c-0.1,0.1-0.2,0.2-0.2,0.4V34H160.7z M170.8,33.2c-0.2,0.2-0.4,0.3-0.7,0.5c-0.3,0.1-0.5,0.2-0.8,0.3
			c-0.3,0.1-0.7,0.1-1,0.1c-0.5,0-1-0.1-1.5-0.2c-0.4-0.2-0.8-0.4-1.2-0.7c-0.3-0.3-0.6-0.7-0.8-1.1c-0.2-0.4-0.3-0.9-0.3-1.4
			c0-0.5,0.1-1,0.3-1.4c0.2-0.4,0.4-0.8,0.7-1.1c0.3-0.3,0.7-0.5,1.1-0.7c0.4-0.2,0.9-0.2,1.3-0.2c0.5,0,0.9,0.1,1.3,0.2
			c0.4,0.2,0.7,0.4,0.9,0.6c0.2,0.3,0.4,0.6,0.5,0.9c0.1,0.3,0.2,0.7,0.2,1.1c0,0.2,0,0.3,0,0.5c0,0.1,0,0.2,0,0.3h-5.2
			c0,0.3,0.1,0.6,0.2,0.9c0.1,0.3,0.3,0.5,0.5,0.7c0.2,0.2,0.5,0.3,0.8,0.4c0.3,0.1,0.6,0.2,1,0.2c0.3,0,0.6,0,0.8-0.1
			c0.2-0.1,0.4-0.1,0.6-0.2c0.2-0.1,0.4-0.2,0.5-0.3C170.2,32.5,170.8,33.2,170.8,33.2z M169.9,30.1c0-0.2,0-0.5-0.1-0.7
			c-0.1-0.4-0.5-0.8-0.9-0.9c-0.3-0.1-0.5-0.1-0.8-0.1c-0.5,0-1,0.2-1.4,0.5s-0.7,0.8-0.8,1.3C165.8,30.1,169.9,30.1,169.9,30.1z
			 M175.9,27.5l2.3,5.3h0l2.3-5.3h1.2l-2.8,6.4c-0.2,0.5-0.4,0.9-0.6,1.3c-0.2,0.3-0.4,0.6-0.6,0.9c-0.2,0.2-0.4,0.4-0.7,0.5
			c-0.3,0.1-0.7,0.1-1.1,0.1c-0.2,0-0.3,0-0.5,0c-0.2,0-0.3,0-0.5-0.1l0.2-1c0.1,0,0.2,0,0.3,0c0.1,0,0.2,0,0.4,0
			c0.2,0,0.4,0,0.6-0.1c0.2,0,0.3-0.1,0.4-0.3c0.1-0.1,0.2-0.3,0.4-0.5c0.1-0.2,0.2-0.5,0.4-0.9l-2.9-6.5L175.9,27.5L175.9,27.5z
			 M189.1,30.7c0,0.5-0.1,0.9-0.3,1.4c-0.2,0.4-0.4,0.8-0.7,1.1c-0.3,0.3-0.7,0.6-1.1,0.7c-0.4,0.2-0.9,0.3-1.4,0.3
			c-0.5,0-1-0.1-1.4-0.3c-0.4-0.2-0.8-0.4-1.1-0.7c-0.3-0.3-0.6-0.7-0.7-1.1c-0.2-0.4-0.3-0.9-0.3-1.4c0-0.5,0.1-0.9,0.3-1.4
			c0.2-0.4,0.4-0.8,0.7-1.1c0.3-0.3,0.7-0.6,1.1-0.7c0.4-0.2,0.9-0.3,1.4-0.3c0.5,0,1,0.1,1.4,0.3s0.8,0.4,1.1,0.7
			c0.3,0.3,0.5,0.7,0.7,1.1C189,29.8,189.1,30.3,189.1,30.7z M187.9,30.7c0-0.3-0.1-0.7-0.2-1c-0.1-0.3-0.3-0.5-0.5-0.8
			c-0.2-0.2-0.5-0.4-0.7-0.5c-0.3-0.1-0.6-0.2-0.9-0.2c-0.3,0-0.6,0.1-0.9,0.2c-0.6,0.2-1,0.7-1.2,1.3c-0.1,0.3-0.2,0.6-0.2,1
			c0,0.3,0.1,0.7,0.2,1c0.2,0.6,0.6,1,1.2,1.3c0.3,0.1,0.6,0.2,0.9,0.2s0.6-0.1,0.9-0.2c0.3-0.1,0.5-0.3,0.7-0.5
			c0.2-0.2,0.4-0.5,0.5-0.8C187.9,31.4,187.9,31.1,187.9,30.7z M196.6,27.5V34h-1.1v-0.8h0c-0.3,0.3-0.6,0.5-0.9,0.7
			c-0.4,0.2-0.8,0.3-1.2,0.3c-1,0-1.7-0.3-2.2-0.8c-0.5-0.5-0.7-1.2-0.7-2v-3.8h1.1v3.8c0,0.5,0.2,1,0.5,1.3
			c0.3,0.3,0.8,0.5,1.4,0.5c0.4,0,0.8-0.1,1.2-0.3c0.3-0.2,0.6-0.4,0.9-0.8v-4.6C195.5,27.5,196.6,27.5,196.6,27.5z M201.9,24.5h1.1
			v3.6h0c0.5-0.5,1.3-0.8,2-0.8c0.4,0,0.9,0.1,1.3,0.3c0.8,0.3,1.4,1,1.7,1.8c0.2,0.4,0.3,0.9,0.3,1.4c0,0.5-0.1,0.9-0.3,1.4
			c-0.3,0.8-1,1.4-1.7,1.8c-0.4,0.2-0.8,0.3-1.3,0.3c-0.4,0-0.8-0.1-1.1-0.2c-0.3-0.1-0.6-0.4-0.9-0.6h0l0,0.7h-1.1L201.9,24.5
			L201.9,24.5z M203.1,32.1c0.2,0.3,0.5,0.6,0.8,0.7c0.3,0.2,0.7,0.3,1.1,0.3c0.3,0,0.6-0.1,0.9-0.2c0.3-0.1,0.5-0.3,0.7-0.5
			c0.2-0.2,0.4-0.5,0.5-0.8c0.1-0.3,0.2-0.6,0.2-1s-0.1-0.7-0.2-1c-0.1-0.3-0.3-0.5-0.5-0.8c-0.2-0.2-0.4-0.4-0.7-0.5
			c-0.3-0.1-0.6-0.2-0.9-0.2c-0.4,0-0.8,0.1-1.1,0.3c-0.3,0.2-0.6,0.4-0.8,0.8L203.1,32.1L203.1,32.1z M215.9,27.5V34h-1.1v-0.8h0
			c-0.3,0.3-0.6,0.5-0.9,0.7c-0.4,0.2-0.8,0.3-1.2,0.3c-1,0-1.7-0.3-2.2-0.8c-0.5-0.5-0.7-1.2-0.7-2v-3.8h1.1v3.8
			c0,0.5,0.2,1,0.5,1.3c0.3,0.3,0.8,0.5,1.4,0.5c0.4,0,0.8-0.1,1.2-0.3c0.3-0.2,0.6-0.4,0.9-0.8v-4.6L215.9,27.5L215.9,27.5z
			 M218.3,27.5l2.3,5.3h0l2.3-5.3h1.2l-2.8,6.4c-0.2,0.5-0.4,0.9-0.6,1.3c-0.2,0.3-0.4,0.6-0.6,0.9c-0.2,0.2-0.4,0.4-0.7,0.5
			c-0.3,0.1-0.7,0.1-1.1,0.1c-0.2,0-0.3,0-0.5,0c-0.2,0-0.3,0-0.5-0.1l0.2-1c0.1,0,0.2,0,0.3,0c0.1,0,0.2,0,0.4,0
			c0.2,0,0.4,0,0.6-0.1c0.2,0,0.3-0.1,0.4-0.3c0.1-0.1,0.2-0.3,0.4-0.5c0.1-0.2,0.2-0.5,0.4-0.9l-2.9-6.5L218.3,27.5L218.3,27.5z"/>
	</g>
	<g>
		<g>
			<circle id="a_1_" class="st2" cx="18" cy="18" r="18"/>
		</g>
		<defs>
			<filter id="Adobe_OpacityMaskFilter" filterUnits="userSpaceOnUse" x="8" y="6" width="18" height="18">
				<feColorMatrix  type="matrix" values="1 0 0 0 0  0 1 0 0 0  0 0 1 0 0  0 0 0 1 0"/>
			</filter>
		</defs>
		<mask maskUnits="userSpaceOnUse" x="8" y="6" width="18" height="18" id="b_1_">
			<g class="st3">
				<circle id="a_2_" class="st4" cx="18" cy="18" r="18"/>
			</g>
		</mask>
		<g class="st5">
			<path class="st6" d="M17,6c5,0,9,4,9,9s-4,9-9,9s-9-4-9-9S12,6,17,6z"/>
		</g>
		<defs>
			<filter id="Adobe_OpacityMaskFilter_1_" filterUnits="userSpaceOnUse" x="-4" y="1" width="50" height="55">
				<feColorMatrix  type="matrix" values="1 0 0 0 0  0 1 0 0 0  0 0 1 0 0  0 0 0 1 0"/>
			</filter>
		</defs>
		<mask maskUnits="userSpaceOnUse" x="-4" y="1" width="50" height="55" id="b_2_">
			<g class="st7">
				<circle id="a_3_" class="st4" cx="18" cy="18" r="18"/>
			</g>
		</mask>
		<g class="st8">
			<g class="st9">
				<path id="d_2_" class="st10" d="M33,25.1V34c0,3.8-3.1,6.9-6.9,6.9c0,0,0,0,0,0h-3.4c-1.1,1-2.7,0.9-3.8-0.1l-9.2-9.2
					c-1.1-1.1-1.1-2.8-0.1-3.9s2.8-1.1,3.9-0.1c0,0,0,0,0.1,0.1l1.5,1.5V14.7c0-1.5,1.2-2.7,2.7-2.7c1.5,0,2.7,1.2,2.7,2.7v6.4
					c0-1.1,0.9-2.1,2.1-2.1c1.1,0,2.1,0.9,2.1,2.1c0,0,0,0,0,0v1.6c0-1.1,0.9-2.1,2.1-2.1s2.1,0.9,2.1,2.1v2.5
					c0-1.1,0.9-2.1,2.1-2.1C32.1,23.1,33,24,33,25.1L33,25.1z"/>
			</g>
			<g>
				<path id="d_1_" class="st4" d="M33,25.1V34c0,3.8-3.1,6.9-6.9,6.9c0,0,0,0,0,0h-3.4c-1.1,1-2.7,0.9-3.8-0.1l-9.2-9.2
					c-1.1-1.1-1.1-2.8-0.1-3.9s2.8-1.1,3.9-0.1c0,0,0,0,0.1,0.1l1.5,1.5V14.7c0-1.5,1.2-2.7,2.7-2.7c1.5,0,2.7,1.2,2.7,2.7v6.4
					c0-1.1,0.9-2.1,2.1-2.1c1.1,0,2.1,0.9,2.1,2.1c0,0,0,0,0,0v1.6c0-1.1,0.9-2.1,2.1-2.1s2.1,0.9,2.1,2.1v2.5
					c0-1.1,0.9-2.1,2.1-2.1C32.1,23.1,33,24,33,25.1L33,25.1z"/>
			</g>
		</g>
	</g>
</g>
</svg>
