<?xml version="1.0" encoding="utf-8"?>
<!-- Generator: Adobe Illustrator 24.1.0, SVG Export Plug-In . SVG Version: 6.00 Build 0)  -->
<svg version="1.1" id="Layer_1" xmlns="http://www.w3.org/2000/svg" xmlns:xlink="http://www.w3.org/1999/xlink" x="0px" y="0px"
	 viewBox="0 0 3943.7 635.9" style="enable-background:new 0 0 3943.7 635.9;" xml:space="preserve">
<style type="text/css">
	.st0{fill:#FFFFFF;}
	.st1{fill:#525EF0;}
	.st2{fill:#4452B7;}
	.st3{fill:none;}
</style>
<g>
	<path class="st0" d="M687,171.8h58.7l68,169l67.7-169h58.7l-102,249.6h-48.7L687,171.8z"/>
	<path class="st0" d="M961,171.8h105.3c38,0,84.1,29.7,84.1,84.5c0,50.5-43,84.5-84.1,84.5h-50.1v80.6H961V171.8z M1063,290.7
		c11.1,0,32.2-7.2,32.2-34.4c0-27.6-21.1-34.4-32.2-34.4h-46.9v68.7L1063,290.7L1063,290.7z"/>
	<path class="st0" d="M1176.1,171.8h49.1l119.6,155v-155h53.4v249.6H1353l-123.5-159.3v159.3h-53.4V171.8z"/>
	<path class="st0" d="M1541.7,171.8h74.5c40.1,0,63.7,22.9,63.7,61.9c0,24.3-12.2,44.8-34,51.9c31.9,4.3,51.9,31.5,51.9,64.5
		c0,44.8-26.9,71.3-72.3,71.3h-83.8L1541.7,171.8L1541.7,171.8z M1614.8,279.2c26.9,0,46.5-19,46.5-44.8c0-28.6-17.2-45.5-46.2-45.5
		h-54.8v90.2L1614.8,279.2L1614.8,279.2z M1624.4,404.2c34.4,0,54.8-20.1,54.8-54.1c0-30.8-23.3-53.7-56.2-53.7h-62.7v107.8H1624.4z
		"/>
	<path class="st0" d="M1748,171.8h18.6v165c0,46.5,27.2,71.6,70.2,71.6s70.2-25.1,70.2-71.6v-165h18.6v166.9c0,56.6-36.9,87-88.8,87
		s-88.8-30.4-88.8-87L1748,171.8L1748,171.8z"/>
	<path class="st0" d="M2071.7,421.4H2053V316.1l-87-144.3h20.8l75.6,125.7l75.6-125.7h20.8l-87,144.3v105.3H2071.7z"/>
	<path class="st0" d="M2204.8,171.8h136.1V189h-117.4v91.7h110.6v17.5h-110.6v106h120v17.2h-138.6V171.8H2204.8z"/>
	<path class="st0" d="M2400.3,171.8h79.8c40.5,0,73,30.4,73,72c0,32.9-19.7,60.2-49.1,69.8l60.5,107.8h-20.4l-58.7-104.9
		c-2.1,0.4-6.8,0.4-7.5,0.4H2419v104.6h-18.6L2400.3,171.8L2400.3,171.8z M2478.4,299.6c32.2,0,56.2-23.6,56.2-55.9
		c0-30.8-23.6-54.8-55.1-54.8H2419v110.6L2478.4,299.6L2478.4,299.6z"/>
	<path class="st0" d="M2613.7,171.8h24.3l-44.8,90.2h-15L2613.7,171.8z"/>
	<path class="st0" d="M2670.3,358.3c12.2,30.8,35.8,50.1,70.2,50.1c44.4,0,56.9-28.3,56.9-49.8c0-32.6-20.8-44.8-59.8-61.9
		c-38-16.5-64.5-31.2-64.5-69.8c0-34.4,27.9-59.4,65.5-59.4c30.4,0,51.9,13.6,65.2,40.1l-16.1,8.2c-10.4-21.1-25.8-31.2-49.1-31.2
		c-26.5,0-46.9,16.8-46.9,41.5c0,30.1,22.2,40.5,54.8,54.8c45.5,20.4,69.5,35.8,69.5,77.7c0,39-27.2,67-75.6,67
		c-39.4,0-71.3-19.7-86.3-59.8L2670.3,358.3z"/>
	<path class="st0" d="M3058.8,167.8c31.2,0,58.4,9.7,79.8,26.9l-11.1,13.2c-18.3-14.3-41.5-22.9-68.7-22.9
		c-63.4,0-110.3,48.3-110.3,111.7c0,64.1,46.9,112.1,110.3,112.1c29.4,0,55.9-9.7,75.6-27.6v-75.6h-82v-17.2H3153v99.5
		c-24.3,24-57.3,38-94.2,38c-72,0-128.9-55.1-128.9-129.3S2986.8,167.8,3058.8,167.8z"/>
	<path class="st0" d="M3209.6,171.8h18.6v165c0,46.5,27.2,71.6,70.2,71.6s70.2-25.1,70.2-71.6v-165h18.6v166.9
		c0,56.6-36.9,87-88.8,87c-51.9,0-88.8-30.4-88.8-87V171.8z"/>
	<path class="st0" d="M3456.3,171.8h18.6v249.6h-18.6V171.8z"/>
	<path class="st0" d="M3545.8,171.8h75.6c79.8,0,128.9,50.8,128.9,125s-48.7,124.6-128.5,124.6h-75.9V171.8H3545.8z M3620.2,404.2
		c72,0,111-43.7,111-107.4c0-64.1-39-107.8-111.4-107.8h-55.5v215.2H3620.2z"/>
	<path class="st0" d="M3805,171.8h136.1V189h-117.4v91.7h110.6v17.5h-110.6v106h120v17.2H3805V171.8z"/>
</g>
<path class="st1" d="M478.8,87.1H288.4v447.3c2.4,0,4.8-0.7,6.8-2L456,428.6c22.1-16.3,35.3-42.3,35.3-69.8v-259
	C491.4,92.7,485.7,87.1,478.8,87.1z"/>
<path class="st2" d="M99.1,87.1c-7,0-12.6,5.6-12.6,12.6v259c0,27.5,13.2,53.5,35.3,69.8l160.8,103.8c2.1,1.3,4.5,2,6.8,2V87.1H99.1
	z"/>
<path class="st3" d="M296.6,580.3l193.1-124.6c26.5-19.6,42.4-50.8,42.4-83.8v-311c0-8.4-6.8-15.1-15.1-15.1H288.4v536.9
	C291.3,582.7,294.1,581.9,296.6,580.3z"/>
<path class="st1" d="M555,0H288.4v45.8h228.5c8.4,0,15.1,6.8,15.1,15.1v311c0,33-15.8,64.3-42.4,83.8l-193,124.6
	c-2.5,1.6-5.3,2.4-8.2,2.4v53.1c4.3,0,8.6-1.2,12.4-3.7l214.3-138.3c0.4-0.2,0.7-0.5,1.1-0.7c38.6-28.1,61.7-73.5,61.7-121.2v-349
	C577.9,10.2,567.6,0,555,0z"/>
<path class="st2" d="M281.2,580.3l-193-124.6c-26.5-19.6-42.4-50.8-42.4-83.8v-311c0-8.4,6.8-15.1,15.1-15.1h228.5V0H22.9
	C10.2,0,0,10.3,0,22.9v349c0,47.8,23.1,93.1,61.7,121.2c0.3,0.3,0.7,0.5,1.1,0.7L277,632.2c3.8,2.4,8.1,3.7,12.4,3.7l0,0v-53.1
	C286.6,582.7,283.7,581.9,281.2,580.3z"/>
</svg>
